<?xml version="1.0" encoding="UTF-8"?>
<svg width="54px" height="55px" viewBox="0 0 54 55" version="1.1" xmlns="http://www.w3.org/2000/svg" xmlns:xlink="http://www.w3.org/1999/xlink">
    <!-- Generator: Sketch 52.5 (67469) - http://www.bohemiancoding.com/sketch -->
    <title>Group 10</title>
    <desc>Created with Sketch.</desc>
    <defs>
        <linearGradient x1="50%" y1="0%" x2="50%" y2="100%" id="linearGradient-1">
            <stop stop-color="#FDE118" offset="0%"></stop>
            <stop stop-color="#FABF0A" offset="100%"></stop>
        </linearGradient>
        <linearGradient x1="50%" y1="0%" x2="50%" y2="100%" id="linearGradient-2">
            <stop stop-color="#73D1DF" offset="0%"></stop>
            <stop stop-color="#3FA4BC" offset="100%"></stop>
        </linearGradient>
    </defs>
    <g id="ACTIVE" stroke="none" stroke-width="1" fill="none" fill-rule="evenodd">
        <g id="M_-CREATE-VENUE" transform="translate(-276.000000, -719.000000)">
            <g id="Group-5" transform="translate(20.000000, 535.000000)">
                <g id="Group-10" transform="translate(256.000000, 184.000000)">
                    <circle id="Oval" fill="url(#linearGradient-1)" fill-rule="nonzero" cx="44" cy="10" r="10"></circle>
                    <g id="006-shop" transform="translate(0.000000, 8.000000)" fill="url(#linearGradient-2)" fill-rule="nonzero">
                        <path d="M54,15.3990171 C54,18.5668149 52.0800981,21.2836415 49.3436861,22.4825649 C49.3547201,22.5265621 49.3547201,22.5705593 49.3547201,22.6255558 L49.3547201,45.6800842 C49.3547201,46.4060379 48.7588884,47 48.0306498,47 L23.6015529,47 C23.590519,47 23.5794851,47 23.5684512,47 L13.3069064,47 C13.2958725,47 13.2848386,47 13.2738047,47 L5.95831631,47 C5.23007765,47 4.63424602,46.4060379 4.63424602,45.6800842 L4.63424602,22.4605663 C1.908868,21.2616429 0,18.5558156 0,15.3990171 C0,15.1680318 0.0662035145,14.9480459 0.176542705,14.7500585 L8.19820188,0.670957173 C8.42991418,0.252983852 8.87127094,0 9.34572946,0 L44.6432366,0 C45.1176951,0 45.5590519,0.26398315 45.7907642,0.670957173 L53.8234573,14.7500585 C53.9448304,14.9480459 54,15.1680318 54,15.3990171 Z M38.4311402,16.2899602 L28.4123416,16.2899602 C28.8316306,18.6658086 30.9170413,20.4696934 33.4217409,20.4696934 C35.9264405,20.4696934 38.0118512,18.6658086 38.4311402,16.2899602 Z M25.5986923,16.2899602 L15.5688598,16.2899602 C15.9991827,18.6658086 18.0845934,20.4696934 20.589293,20.4696934 C23.0939926,20.4696934 25.1794034,18.6658086 25.5986923,16.2899602 Z M2.73641193,16.2899602 C3.15570086,18.6658086 5.24111157,20.4806927 7.7458112,20.4696934 C10.2505108,20.4696934 12.3469555,18.6658086 12.7662444,16.2899602 L2.73641193,16.2899602 Z M22.2443809,44.3601685 L22.2554148,44.3601685 L22.2554148,30.1160777 C22.2554148,29.0711444 21.405803,28.2351978 20.3686146,28.2351978 L16.5177769,28.2351978 C15.4695546,28.2351978 14.6309767,29.0821437 14.6309767,30.1160777 L14.6309767,44.3601685 L22.2443809,44.3601685 Z M46.2541888,20.4806927 C48.7588884,20.4806927 50.8442991,18.6658086 51.274622,16.3009595 L41.2447895,16.3009595 C41.6640785,18.6768079 43.7494892,20.4806927 46.2541888,20.4806927 Z M36.7622642,28 L30.2377358,28 C28.4520755,28 27,29.391453 27,31.1025641 L27,35.8974359 C27,37.608547 28.4520755,39 30.2377358,39 L36.7622642,39 C38.5479245,39 40,37.608547 40,35.8974359 L40,31.1025641 C40,29.391453 38.5479245,28 36.7622642,28 Z" id="Combined-Shape"></path>
                    </g>
                    <polygon id="Path" fill="#FFFFFF" points="10.2268827 11 43.7621544 11 50 22 4 22"></polygon>
                </g>
            </g>
        </g>
    </g>
</svg>